{
  "dev": {
    "awscloudformation": {
      "AuthRoleName": "amplify-vueaws-dev-174203-authRole",
      "UnauthRoleArn": "arn:aws:iam::024754029353:role/amplify-vueaws-dev-174203-unauthRole",
      "AuthRoleArn": "arn:aws:iam::024754029353:role/amplify-vueaws-dev-174203-authRole",
      "Region": "us-east-2",
      "DeploymentBucketName": "amplify-vueaws-dev-174203-deployment",
      "UnauthRoleName": "amplify-vueaws-dev-174203-unauthRole",
      "StackName": "amplify-vueaws-dev-174203",
      "StackId": "arn:aws:cloudformation:us-east-2:024754029353:stack/amplify-vueaws-dev-174203/2466fa20-297e-11ed-945c-0251e1843cc4",
      "AmplifyAppId": "d31898bxndk7lu"
    },
    "categories": {
      "hosting": {
        "amplifyhosting": {
          "appId": "d31898bxndk7lu",
          "type": "cicd"
        }
      }
    }
  }
}